Fish 550 Spring 2023 - 5 Team 3 - Lab 1
…
PinkByRegion<-ruggerone_data %>%
  filter(region != "korea") %>% 
  filter(region != "wa") %>%#Remove WA too, it's trouble 
  group_by(species, region, year) %>%
  summarize(total = sum(returns, na.rm=TRUE)) %>% 
  mutate(lnreturns = log(total)) %>%
  mutate(lnreturns = ifelse(lnreturns == -Inf, NA, lnreturns)) %>%
  filter(species == "pink")%>% 
  print(n=5)

`summarise()` has grouped output by 'species', 'region'. You can override using
the `.groups` argument.

# A tibble: 768 × 5
# Groups:   species, region [12]
  species region  year total lnreturns
  <chr>   <chr>  <dbl> <dbl>     <dbl>
1 pink    ci      1952  4.36     1.47 
2 pink    ci      1953  1.30     0.264
3 pink    ci      1954  4.67     1.54 
4 pink    ci      1955  2.67     0.981
5 pink    ci      1956  3.57     1.27 
# ℹ 763 more rows
…
#All
RegionMASE<-sapply(RegionMods, function(x){y<-x$MASE})
RegionBestMod<-sapply(RegionMods, function(x){y<-as.character(x$Fit)})
#Even
RegionMASE_even<-sapply(RegionMods_even, function(x){y<-x$MASE})
RegionBestMod_even<-sapply(RegionMods_even, function(x){y<-as.character(x$Fit)})
#Odd
RegionMASE_odd<-sapply(RegionMods_odd, function(x){y<-x$MASE})
RegionBestMod_odd<-sapply(RegionMods_odd, function(x){y<-as.character(x$Fit)})
#combine into tables
#all
ResultsTable<-Allcombs %>% add_column(Model = RegionBestMod, MASE = RegionMASE)
ResultsTable

# A tibble: 36 × 4
   regions forecastlevels Model                            MASE
   <chr>            <dbl> <chr>                           <dbl>
 1 ci                   5 ARIMA(2,0,0) with non-zero mean 0.460
 2 ci                  10 ARIMA(2,0,0) with non-zero mean 0.549
 3 ci                  20 ARIMA(1,0,1) with non-zero mean 0.711
 4 e_kam                5 ARIMA(2,0,0) with non-zero mean 0.134
 5 e_kam               10 ARIMA(2,0,0) with non-zero mean 0.111
 6 e_kam               20 ARIMA(2,0,0) with non-zero mean 0.196
 7 japan                5 ARIMA(0,0,0) with non-zero mean 0.744
 8 japan               10 ARIMA(0,0,0) with non-zero mean 0.901
 9 japan               20 ARIMA(0,1,1)                    0.853
10 kod                  5 ARIMA(0,1,1) with drift         0.221
# ℹ 26 more rows

Code

#even
ResultsTable_even<-Allcombs %>% add_column(Model = RegionBestMod_even, MASE = RegionMASE_even)
ResultsTable_even

# A tibble: 36 × 4
   regions forecastlevels Model                            MASE
   <chr>            <dbl> <chr>                           <dbl>
 1 ci                   5 ARIMA(0,1,0)                    0.360
 2 ci                  10 ARIMA(0,1,0)                    1.24 
 3 ci                  20 ARIMA(0,1,0)                    0.395
 4 e_kam                5 ARIMA(0,0,0) with non-zero mean 0.240
 5 e_kam               10 ARIMA(0,0,0) with non-zero mean 0.219
 6 e_kam               20 ARIMA(0,0,0) with non-zero mean 0.238
 7 japan                5 ARIMA(0,1,0)                    0.743
 8 japan               10 ARIMA(0,1,0)                    0.500
 9 japan               20 ARIMA(1,0,0) with non-zero mean 0.731
10 kod                  5 ARIMA(0,0,0) with non-zero mean 0.155
# ℹ 26 more rows

Code

#Odd
ResultsTable_odd<-Allcombs %>% add_column(Model = RegionBestMod_odd, MASE = RegionMASE_odd)
ResultsTable_odd

# A tibble: 36 × 4
   regions forecastlevels Model                            MASE
   <chr>            <dbl> <chr>                           <dbl>
 1 ci                   5 ARIMA(1,0,0) with zero mean     2.14 
 2 ci                  10 ARIMA(1,0,0) with zero mean     1.56 
 3 ci                  20 ARIMA(1,0,0) with zero mean     1.43 
 4 e_kam                5 ARIMA(0,1,0)                    0.172
 5 e_kam               10 ARIMA(0,0,1) with non-zero mean 0.236
 6 e_kam               20 ARIMA(0,0,1) with non-zero mean 0.192
 7 japan                5 ARIMA(1,1,0)                    0.898
 8 japan               10 ARIMA(0,1,0)                    0.557
 9 japan               20 ARIMA(1,0,0) with non-zero mean 0.550
10 kod                  5 ARIMA(0,1,0)                    0.124
# ℹ 26 more rows
…
